K-means_Clustering_STUDY
…
##              Length Class  Mode   
## cluster      300    -none- numeric
## centers        6    -none- numeric
## totss          1    -none- numeric
## withinss       3    -none- numeric
## tot.withinss   1    -none- numeric
## betweenss      1    -none- numeric
## size           3    -none- numeric
## iter           1    -none- numeric
## ifault         1    -none- numeric

augment(kclust, points)

## # A tibble: 300 x 3
##       x1     x2 .cluster
##    <dbl>  <dbl> <fct>   
##  1  6.91 -2.74  3       
##  2  6.14 -2.45  3       
##  3  4.24 -0.946 3       
##  4  3.54  0.287 3       
##  5  3.91  0.408 3       
##  6  5.30 -1.58  3       
##  7  5.01 -1.77  3       
##  8  6.16 -1.68  3       
##  9  7.13 -2.17  3       
## 10  5.24 -2.42  3       
## #  with 290 more rows
…
